Lab3/Lab3.sim/sim_1/behav/xsim/simulate.log
Time resolution is 1 ps
Time = 0, in = 0000, shift = 0, out = 0000, k = 0
Time = 10000, in = 0001, shift = 0, out = 0001, k = 0
Time = 20000, in = 0010, shift = 0, out = 0010, k = 0
Time = 30000, in = 0011, shift = 0, out = 0011, k = 0
Time = 40000, in = 0100, shift = 0, out = 0100, k = 0
Time = 50000, in = 0101, shift = 0, out = 0101, k = 0
Time = 60000, in = 0110, shift = 0, out = 0110, k = 0
Time = 70000, in = 0111, shift = 0, out = 0111, k = 0
Time = 80000, in = 1000, shift = 0, out = 1000, k = 0
Time = 90000, in = 1001, shift = 0, out = 1001, k = 0
Time = 100000, in = 1010, shift = 0, out = 1010, k = 0
Time = 110000, in = 1011, shift = 0, out = 1011, k = 0
Time = 120000, in = 1100, shift = 0, out = 1100, k = 0
Time = 130000, in = 1101, shift = 0, out = 1101, k = 0
Time = 140000, in = 1110, shift = 0, out = 1110, k = 0
Time = 150000, in = 1111, shift = 0, out = 1111, k = 0
Time = 160000, in = 0000, shift = 1, out = 0000, k = 0
Time = 170000, in = 0001, shift = 1, out = 0000, k = 1
Time = 180000, in = 0010, shift = 1, out = 0001, k = 0
Time = 190000, in = 0011, shift = 1, out = 0001, k = 1
Time = 200000, in = 0100, shift = 1, out = 0010, k = 0
Time = 210000, in = 0101, shift = 1, out = 0010, k = 1
Time = 220000, in = 0110, shift = 1, out = 0011, k = 0
Time = 230000, in = 0111, shift = 1, out = 0011, k = 1
Time = 240000, in = 1000, shift = 1, out = 0100, k = 0
Time = 250000, in = 1001, shift = 1, out = 0100, k = 1
Time = 260000, in = 1010, shift = 1, out = 0101, k = 0
Time = 270000, in = 1011, shift = 1, out = 0101, k = 1
Time = 280000, in = 1100, shift = 1, out = 0110, k = 0
Time = 290000, in = 1101, shift = 1, out = 0110, k = 1
Time = 300000, in = 1110, shift = 1, out = 0111, k = 0
Time = 310000, in = 1111, shift = 1, out = 0111, k = 1
$finish called at time : 320 ns : File "C:/Users/LHeysemK/Desktop/CS223/Labs/Lab 3/Lab3/Lab3.srcs/sources_1/new/BitShifterTestBench.v" Line 64
